<?xml version="1.0" encoding="utf-8"?>
<!-- Generator: Adobe Illustrator 24.1.2, SVG Export Plug-In . SVG Version: 6.00 Build 0)  -->
<svg version="1.1"
	 id="svg2" xmlns:cc="http://creativecommons.org/ns#" xmlns:dc="http://purl.org/dc/elements/1.1/" xmlns:rdf="http://www.w3.org/1999/02/22-rdf-syntax-ns#" xmlns:svg="http://www.w3.org/2000/svg"
	 xmlns="http://www.w3.org/2000/svg" xmlns:xlink="http://www.w3.org/1999/xlink" x="0px" y="0px" viewBox="0 0 2456.7 755.9"
	 style="enable-background:new 0 0 2456.7 755.9;" xml:space="preserve">
<style type="text/css">
	.st0{fill:#232527;}
	.st1{clip-path:url(#SVGID_2_);}
	.st2{clip-path:url(#SVGID_4_);}
	.st3{fill:url(#path70_1_);}
</style>
<g id="g12" transform="translate(774.7617,282.6927)">
	<path id="path14" class="st0" d="M258.3,96.3H148.7V-0.2h-48.5V239h48.5v-97.1h109.6V239h48.5V-0.2h-48.5V96.3z"/>
</g>
<g id="g16">
	<g>
		<defs>
			<rect id="SVGID_1_" y="0" width="2456.7" height="755.9"/>
		</defs>
		<clipPath id="SVGID_2_">
			<use xlink:href="#SVGID_1_"  style="overflow:visible;"/>
		</clipPath>
		<g id="g18" class="st1">
			<g id="g24" transform="translate(979.8174,252.3851)">
				<path id="path26" class="st0" d="M326.6,167c0,38.9-19.3,59.7-54.4,59.7c-35.3,0-54.7-21.4-54.7-61.3V30.2H169V167
					c0,67.3,37.4,105.9,102.6,105.9c65.8,0,103.5-39.3,103.5-107.9V30.1h-48.5L326.6,167z"/>
			</g>
			<g id="g28" transform="translate(1400.5127,231.7055)">
				<path id="path30" class="st0" d="M466.8,215.3L412.5,50.7h-39.6l-54.3,164.5L265.8,50.9h-51.7L297.5,290h40.2l54.4-157.1
					L446.4,290H487l83.2-239.1h-50.3L466.8,215.3z"/>
			</g>
			<g id="g32" transform="translate(1543.2373,252.8705)">
				<path id="path34" class="st0" d="M514.4,165.9h88.3v-43.6h-88.3v-49h128.1V29.8h-176v238.9h180.6v-43.6H514.4V165.9z"/>
			</g>
			<path id="path36" class="st0" d="M2248.3,521.4h47.9V282.5h-47.9V521.4z"/>
			<g id="g38" transform="translate(1101.6982,245.4574)">
				<path id="path40" class="st0" d="M367.2,183.2l36.6-85.6l36.8,85.6H367.2z M383.2,37L277.9,276.1h49.5l21.8-49.8h109.5
					l21.5,49.8H531L426,37H383.2z"/>
			</g>
		</g>
	</g>
</g>
<g id="g42">
	<g>
		<defs>
			<path id="SVGID_3_" d="M458,478.7c0.1,1.5,0.9,2,1.6,2.2l0,0c1,0.3,2-0.1,2.7-1.1l0,0c18.4-26.6,102.3-150.9,119.3-226.5l0,0
				c0,0,9.2-36.6,0.3-61.4l0,0c0,0-12.7-47.2-64-59.7l0,0c0,0-14.8-3.7-30.5-6l0,0C487.5,126.1,430.2,200,458,478.7 M364.7,132.1
				c-51.3,12.5-64,59.7-64,59.7l0,0c-8.9,24.8,0.3,61.4,0.3,61.4l0,0c17,75.6,100.9,199.9,119.3,226.5l0,0c0.7,1,1.7,1.4,2.7,1.1
				l0,0c0.7-0.2,1.5-0.7,1.6-2.2l0,0c27.9-278.7-29.5-352.5-29.5-352.5l0,0C379.5,128.4,364.7,132.1,364.7,132.1 M485,493.2
				c-0.4,0.8-0.5,2.3,0.3,3l0,0c0.6,0.5,1.7,0.8,2.8,0.3l0,0c27.6-13.7,142.5-72.9,190.9-119l0,0c0,0,30.3-24.3,31.9-63.3l0,0
				c3.5-54.2-51.1-104.4-51.1-104.4l0,0C659.9,209.7,558.7,332.3,485,493.2 M171.8,314.1c1.6,39,31.9,63.3,31.9,63.3l0,0
				c48.4,46.2,163.3,105.3,190.9,119l0,0c1.1,0.6,2.2,0.2,2.8-0.3l0,0c0.9-0.7,0.7-2.2,0.3-3l0,0C324,332.3,222.9,209.7,222.9,209.7
				l0,0C222.9,209.7,168.3,259.9,171.8,314.1 M501.1,515.9c-0.6,0.4-1.4,1.3-1,2.8l0,0c0.2,0.8,1,1.5,2,1.5l0,0
				c30.5,0,145.8,0.2,148.7-0.4l0,0c0,0,14.9-0.6,33.3-7.7l0,0c0,0,41-13,62.3-59.6l0,0c0,0,19-38,4.3-82.4l0,0
				C750.7,370.2,586.2,458.6,501.1,515.9 M136.3,452.6c21.3,46.6,62.3,59.6,62.3,59.6l0,0c18.4,7.1,33.3,7.7,33.3,7.7l0,0
				c2.9,0.5,118.2,0.4,148.7,0.4l0,0c1,0,1.8-0.7,2-1.5l0,0c0.4-1.5-0.4-2.4-1-2.8l0,0C296.6,458.6,132,370.2,132,370.2l0,0
				C117.3,414.6,136.3,452.6,136.3,452.6 M503.3,535.9c-0.3,0.6-0.6,2.1,0.6,3l0,0c18.5,13.3,74.7,52.6,101.8,60.2l0,0
				c0,0,50,17.1,93.5-57.6l0,0c0,0-145.5-5.1-193.8-6.8l0,0c0,0,0,0,0,0l0,0C504.7,534.6,503.7,535.1,503.3,535.9 M377.4,534.6
				c-48.4,1.7-193.8,6.8-193.8,6.8l0,0c43.5,74.7,93.5,57.6,93.5,57.6l0,0c27.1-7.6,83.2-46.9,101.8-60.2l0,0c1.2-0.8,0.9-2.3,0.6-3
				l0,0C379,535.1,378.1,534.6,377.4,534.6L377.4,534.6C377.4,534.6,377.4,534.6,377.4,534.6"/>
		</defs>
		<clipPath id="SVGID_4_">
			<use xlink:href="#SVGID_3_"  style="overflow:visible;"/>
		</clipPath>
		<g id="g44" class="st2">
			<g id="g50">
				<g id="g52">
					
						<radialGradient id="path70_1_" cx="1075.6631" cy="528.4943" r="1" gradientTransform="matrix(461.2911 0 0 -461.2911 -495677.7812 243972.25)" gradientUnits="userSpaceOnUse">
						<stop  offset="0" style="stop-color:#FEA99C"/>
						<stop  offset="0" style="stop-color:#FEA99C"/>
						<stop  offset="0" style="stop-color:#FEA99C"/>
						<stop  offset="0.4231" style="stop-color:#DC0021"/>
						<stop  offset="0.43" style="stop-color:#DC0021"/>
						<stop  offset="0.8732" style="stop-color:#DC0021"/>
						<stop  offset="1" style="stop-color:#DC0021"/>
					</radialGradient>
					<path id="path70" class="st3" d="M458,478.7c0.1,1.5,0.9,2,1.6,2.2l0,0c1,0.3,2-0.1,2.7-1.1l0,0
						c18.4-26.6,102.3-150.9,119.3-226.5l0,0c0,0,9.2-36.6,0.3-61.4l0,0c0,0-12.7-47.2-64-59.7l0,0c0,0-14.8-3.7-30.5-6l0,0
						C487.5,126.1,430.2,200,458,478.7 M364.7,132.1c-51.3,12.5-64,59.7-64,59.7l0,0c-8.9,24.8,0.3,61.4,0.3,61.4l0,0
						c17,75.6,100.9,199.9,119.3,226.5l0,0c0.7,1,1.7,1.4,2.7,1.1l0,0c0.7-0.2,1.5-0.7,1.6-2.2l0,0
						c27.9-278.7-29.5-352.5-29.5-352.5l0,0C379.5,128.4,364.7,132.1,364.7,132.1 M485,493.2c-0.4,0.8-0.5,2.3,0.3,3l0,0
						c0.6,0.5,1.7,0.8,2.8,0.3l0,0c27.6-13.7,142.5-72.9,190.9-119l0,0c0,0,30.3-24.3,31.9-63.3l0,0c3.5-54.2-51.1-104.4-51.1-104.4
						l0,0C659.9,209.7,558.7,332.3,485,493.2 M171.8,314.1c1.6,39,31.9,63.3,31.9,63.3l0,0c48.4,46.2,163.3,105.3,190.9,119l0,0
						c1.1,0.6,2.2,0.2,2.8-0.3l0,0c0.9-0.7,0.7-2.2,0.3-3l0,0C324,332.3,222.9,209.7,222.9,209.7l0,0
						C222.9,209.7,168.3,259.9,171.8,314.1 M501.1,515.9c-0.6,0.4-1.4,1.3-1,2.8l0,0c0.2,0.8,1,1.5,2,1.5l0,0
						c30.5,0,145.8,0.2,148.7-0.4l0,0c0,0,14.9-0.6,33.3-7.7l0,0c0,0,41-13,62.3-59.6l0,0c0,0,19-38,4.3-82.4l0,0
						C750.7,370.2,586.2,458.6,501.1,515.9 M136.3,452.6c21.3,46.6,62.3,59.6,62.3,59.6l0,0c18.4,7.1,33.3,7.7,33.3,7.7l0,0
						c2.9,0.5,118.2,0.4,148.7,0.4l0,0c1,0,1.8-0.7,2-1.5l0,0c0.4-1.5-0.4-2.4-1-2.8l0,0C296.6,458.6,132,370.2,132,370.2l0,0
						C117.3,414.6,136.3,452.6,136.3,452.6 M503.3,535.9c-0.3,0.6-0.6,2.1,0.6,3l0,0c18.5,13.3,74.7,52.6,101.8,60.2l0,0
						c0,0,50,17.1,93.5-57.6l0,0c0,0-145.5-5.1-193.8-6.8l0,0c0,0,0,0,0,0l0,0C504.7,534.6,503.7,535.1,503.3,535.9 M377.4,534.6
						c-48.4,1.7-193.8,6.8-193.8,6.8l0,0c43.5,74.7,93.5,57.6,93.5,57.6l0,0c27.1-7.6,83.2-46.9,101.8-60.2l0,0
						c1.2-0.8,0.9-2.3,0.6-3l0,0C379,535.1,378.1,534.6,377.4,534.6L377.4,534.6C377.4,534.6,377.4,534.6,377.4,534.6"/>
				</g>
			</g>
		</g>
	</g>
</g>
</svg>
